Final/Testbenches/fifo_tb.vcd
$date
	Sat Dec 14 16:26:43 2024
$end
$version
	Icarus Verilog
$end
$timescale
	1ps
$end
$scope module fifo_tb $end
$var wire 32 ! rdata [31:0] $end
$var wire 4 " level [3:0] $end
$var wire 1 # full $end
$var wire 1 $ empty $end
$var reg 1 % clk $end
$var reg 1 & flush $end
$var reg 1 ' rd $end
$var reg 1 ( rst_n $end
$var reg 32 ) wdata [31:0] $end
$var reg 1 * wr $end
$scope module fifo_inst $end
$var wire 1 % clk $end
$var wire 1 $ empty $end
$var wire 1 & flush $end
$var wire 1 # full $end
$var wire 4 + level [3:0] $end
$var wire 1 ' rd $end
$var wire 32 , rdata [31:0] $end
$var wire 1 ( rst_n $end
$var wire 1 - w_en $end
$var wire 32 . wdata [31:0] $end
$var wire 1 * wr $end
$var reg 1 / empty_next $end
$var reg 1 0 empty_reg $end
$var reg 1 1 full_next $end
$var reg 1 2 full_reg $end
$var reg 4 3 level_next [3:0] $end
$var reg 4 4 level_reg [3:0] $end
$var reg 4 5 r_ptr_next [3:0] $end
$var reg 4 6 r_ptr_reg [3:0] $end
$var reg 4 7 r_ptr_succ [3:0] $end
$var reg 4 8 w_ptr_next [3:0] $end
$var reg 4 9 w_ptr_reg [3:0] $end
$var reg 4 : w_ptr_succ [3:0] $end
$upscope $end
$upscope $end
$enddefinitions $end
#0
$dumpvars
b1 :
b0 9
b0 8
b1 7
b0 6
b0 5
b0 4
b0 3
02
01
10
1/
b0 .
0-
bx ,
b0 +
0*
b0 )
0(
0'
0&
0%
1$
0#
b0 "
bx !
$end
#5000
1%
#10000
0%
1(
#15000
1%
#20000
b1 3
0/
b1 8
1-
0%
b1 )
b1 .
1*
#25000
b10 3
b10 8
b10 :
b1 "
b1 +
b1 4
0$
00
b1 9
b1 !
b1 ,
1%
#30000
0%
b10 )
b10 .
#35000
b11 3
b11 8
b11 :
b10 "
b10 +
b10 4
b10 9
1%
#40000
0%
b11 )
b11 .
#45000
b100 3
b100 8
b100 :
b11 "
b11 +
b11 4
b11 9
1%
#50000
0%
b100 )
b100 .
#55000
b101 3
b101 8
b101 :
b100 "
b100 +
b100 4
b100 9
1%
#60000
0%
b101 )
b101 .
#65000
b110 3
b110 8
b110 :
b101 "
b101 +
b101 4
b101 9
1%
#70000
0%
b110 )
b110 .
#75000
b111 3
b111 8
b111 :
b110 "
b110 +
b110 4
b110 9
1%
#80000
0%
b111 )
b111 .
#85000
b1000 3
b1000 8
b1000 :
b111 "
b111 +
b111 4
b111 9
1%
#90000
0%
b1000 )
b1000 .
#95000
b1001 3
b1001 8
b1001 :
b1000 "
b1000 +
b1000 4
b1000 9
1%
#100000
0%
b1001 )
b1001 .
#105000
b1010 3
b1010 8
b1010 :
b1001 "
b1001 +
b1001 4
b1001 9
1%
#110000
0%
b1010 )
b1010 .
#115000
b1011 3
b1011 8
b1011 :
b1010 "
b1010 +
b1010 4
b1010 9
1%
#120000
0%
b1011 )
b1011 .
#125000
b1100 3
b1100 8
b1100 :
b1011 "
b1011 +
b1011 4
b1011 9
1%
#130000
0%
b1100 )
b1100 .
#135000
b1101 3
b1101 8
b1101 :
b1100 "
b1100 +
b1100 4
b1100 9
1%
#140000
0%
b1101 )
b1101 .
#145000
b1110 3
b1110 8
b1110 :
b1101 "
b1101 +
b1101 4
b1101 9
1%
#150000
0%
b1110 )
b1110 .
#155000
b1111 3
b1111 8
b1111 :
b1110 "
b1110 +
b1110 4
b1110 9
1%
#160000
0%
b1111 )
b1111 .
#165000
11
b0 3
b0 8
b0 :
b1111 "
b1111 +
b1111 4
b1111 9
1%
#170000
0%
b10000 )
b10000 .
#175000
0-
b1 :
b0 "
b0 +
b0 4
1#
12
b0 9
1%
#180000
0%
0*
#185000
1%
#190000
b1111 3
01
b1 5
0%
1'
#195000
b1110 3
b10 5
b10 7
b1111 "
b1111 +
b1111 4
0#
02
b10 !
b10 ,
b1 6
1%
#200000
0%
#205000
b1101 3
b11 5
b11 7
b1110 "
b1110 +
b1110 4
b11 !
b11 ,
b10 6
1%
#210000
0%
#215000
b1100 3
b100 5
b100 7
b1101 "
b1101 +
b1101 4
b100 !
b100 ,
b11 6
1%
#220000
0%
#225000
b1011 3
b101 5
b101 7
b1100 "
b1100 +
b1100 4
b101 !
b101 ,
b100 6
1%
#230000
0%
#235000
b1010 3
b110 5
b110 7
b1011 "
b1011 +
b1011 4
b110 !
b110 ,
b101 6
1%
#240000
0%
#245000
b1001 3
b111 5
b111 7
b1010 "
b1010 +
b1010 4
b111 !
b111 ,
b110 6
1%
#250000
0%
#255000
b1000 3
b1000 5
b1000 7
b1001 "
b1001 +
b1001 4
b1000 !
b1000 ,
b111 6
1%
#260000
0%
#265000
b111 3
b1001 5
b1001 7
b1000 "
b1000 +
b1000 4
b1001 !
b1001 ,
b1000 6
1%
#270000
0%
#275000
b110 3
b1010 5
b1010 7
b111 "
b111 +
b111 4
b1010 !
b1010 ,
b1001 6
1%
#280000
0%
#285000
b101 3
b1011 5
b1011 7
b110 "
b110 +
b110 4
b1011 !
b1011 ,
b1010 6
1%
#290000
0%
#295000
b100 3
b1100 5
b1100 7
b101 "
b101 +
b101 4
b1100 !
b1100 ,
b1011 6
1%
#300000
0%
#305000
b11 3
b1101 5
b1101 7
b100 "
b100 +
b100 4
b1101 !
b1101 ,
b1100 6
1%
#310000
0%
#315000
b10 3
b1110 5
b1110 7
b11 "
b11 +
b11 4
b1110 !
b1110 ,
b1101 6
1%
#320000
0%
#325000
b1 3
b1111 5
b1111 7
b10 "
b10 +
b10 4
b1111 !
b1111 ,
b1110 6
1%
#330000
0%
#335000
1/
b0 3
b0 5
b0 7
b1 "
b1 +
b1 4
b10000 !
b10000 ,
b1111 6
1%
#340000
0%
#345000
b1 7
b0 "
b0 +
b0 4
1$
10
b1 !
b1 ,
b0 6
1%
#350000
0%
#355000
1%
#360000
0%
0'
