MS1/SoC_tb.vcd
$date
	Sun Sep 22 06:11:00 2024
$end
$version
	Icarus Verilog
$end
$timescale
	1s
$end
$scope module SoC_testbench $end
$var reg 1 ! HCLK $end
$var reg 1 " HRESETn $end
$scope module MUV $end
$var wire 1 ! HCLK $end
$var wire 1 " HRESETn $end
$var wire 1 # S0_HREADYOUT $end
$var wire 1 $ S1_HREADYOUT $end
$var wire 1 % S2_HREADYOUT $end
$var wire 1 & S2_HSEL $end
$var wire 32 ' S2_HRDATA [31:0] $end
$var wire 1 ( S1_HSEL $end
$var wire 32 ) S1_HRDATA [31:0] $end
$var wire 32 * S0_REGISTER_2 [31:0] $end
$var wire 32 + S0_REGISTER_1 [31:0] $end
$var wire 32 , S0_REGISTER_0 [31:0] $end
$var wire 1 - S0_HSEL $end
$var wire 32 . S0_HRDATA [31:0] $end
$var wire 1 / HWRITE $end
$var wire 32 0 HWDATA [31:0] $end
$var wire 2 1 HTRANS [1:0] $end
$var wire 3 2 HSIZE [2:0] $end
$var wire 1 3 HREADY $end
$var wire 32 4 HRDATA [31:0] $end
$var wire 32 5 HADDR [31:0] $end
$scope module M $end
$var wire 1 ! HCLK $end
$var wire 1 " HRESETn $end
$var wire 1 3 HREADY $end
$var wire 32 6 HRDATA [31:0] $end
$var reg 32 7 HADDR [31:0] $end
$var reg 3 8 HSIZE [2:0] $end
$var reg 2 9 HTRANS [1:0] $end
$var reg 32 : HWDATA [31:0] $end
$var reg 1 / HWRITE $end
$scope task ahbl_read $end
$var reg 32 ; addr [31:0] $end
$var reg 3 < size [2:0] $end
$upscope $end
$scope task ahbl_w_write $end
$var reg 32 = addr [31:0] $end
$var reg 32 > data [31:0] $end
$var reg 3 ? size [2:0] $end
$upscope $end
$upscope $end
$scope module S $end
$var wire 32 @ HADDR [31:0] $end
$var wire 1 ! HCLK $end
$var wire 1 " HRESETn $end
$var wire 2 A HTRANS [1:0] $end
$var wire 1 # S0_HREADYOUT $end
$var wire 1 $ S1_HREADYOUT $end
$var wire 1 % S2_HREADYOUT $end
$var wire 1 & S2_HSEL $end
$var wire 32 B S2_HRDATA [31:0] $end
$var wire 1 ( S1_HSEL $end
$var wire 32 C S1_HRDATA [31:0] $end
$var wire 1 - S0_HSEL $end
$var wire 32 D S0_HRDATA [31:0] $end
$var wire 1 3 HREADY $end
$var wire 32 E HRDATA [31:0] $end
$var parameter 32 F S0 $end
$var parameter 32 G S1 $end
$var parameter 32 H S2 $end
$var reg 3 I sel [2:0] $end
$var reg 3 J sel_d [2:0] $end
$upscope $end
$scope module S0 $end
$var wire 32 K HADDR [31:0] $end
$var wire 1 ! HCLK $end
$var wire 1 3 HREADY $end
$var wire 1 # HREADYOUT $end
$var wire 1 " HRESETn $end
$var wire 1 - HSEL $end
$var wire 3 L HSIZE [2:0] $end
$var wire 2 M HTRANS [1:0] $end
$var wire 32 N HWDATA [31:0] $end
$var wire 1 / HWRITE $end
$var wire 1 O ahbl_read $end
$var wire 1 P ahbl_we $end
$var wire 32 Q register_2_output [31:0] $end
$var wire 32 R register_1_output [31:0] $end
$var wire 32 S register_0_output [31:0] $end
$var parameter 32 T ID $end
$var reg 32 U HADDR_d [31:0] $end
$var reg 32 V HRDATA [31:0] $end
$var reg 1 W HSEL_d $end
$var reg 3 X HSIZE_d [2:0] $end
$var reg 2 Y HTRANS_d [1:0] $end
$var reg 1 Z HWRITE_d $end
$var reg 3 [ load [2:0] $end
$scope module register_0 $end
$var wire 32 \ D [31:0] $end
$var wire 1 ! clk $end
$var wire 1 ] load $end
$var wire 1 " rst_n $end
$var parameter 32 ^ n $end
$var reg 32 _ Q [31:0] $end
$upscope $end
$scope module register_1 $end
$var wire 32 ` D [31:0] $end
$var wire 1 ! clk $end
$var wire 1 a load $end
$var wire 1 " rst_n $end
$var parameter 32 b n $end
$var reg 32 c Q [31:0] $end
$upscope $end
$scope module register_2 $end
$var wire 32 d D [31:0] $end
$var wire 1 ! clk $end
$var wire 1 e load $end
$var wire 1 " rst_n $end
$var parameter 32 f n $end
$var reg 32 g Q [31:0] $end
$upscope $end
$upscope $end
$scope module S1 $end
$var wire 32 h HADDR [31:0] $end
$var wire 1 ! HCLK $end
$var wire 1 3 HREADY $end
$var wire 1 $ HREADYOUT $end
$var wire 1 " HRESETn $end
$var wire 1 ( HSEL $end
$var wire 3 i HSIZE [2:0] $end
$var wire 2 j HTRANS [1:0] $end
$var wire 32 k HWDATA [31:0] $end
$var wire 1 / HWRITE $end
$var wire 1 l ahbl_rd $end
$var wire 1 m ahbl_we $end
$var parameter 32 n ID $end
$var reg 32 o HADDR_d [31:0] $end
$var reg 32 p HRDATA [31:0] $end
$var reg 1 q HSEL_d $end
$var reg 3 r HSIZE_d [2:0] $end
$var reg 2 s HTRANS_d [1:0] $end
$var reg 1 t HWRITE_d $end
$upscope $end
$scope module S2 $end
$var wire 32 u HADDR [31:0] $end
$var wire 1 ! HCLK $end
$var wire 1 3 HREADY $end
$var wire 1 % HREADYOUT $end
$var wire 1 " HRESETn $end
$var wire 1 & HSEL $end
$var wire 3 v HSIZE [2:0] $end
$var wire 2 w HTRANS [1:0] $end
$var wire 32 x HWDATA [31:0] $end
$var wire 1 / HWRITE $end
$var wire 1 y ahbl_rd $end
$var wire 1 z ahbl_we $end
$var parameter 32 { ID $end
$var reg 32 | HADDR_d [31:0] $end
$var reg 32 } HRDATA [31:0] $end
$var reg 1 ~ HSEL_d $end
$var reg 3 !" HSIZE_d [2:0] $end
$var reg 2 "" HTRANS_d [1:0] $end
$var reg 1 #" HWRITE_d $end
$upscope $end
$upscope $end
$upscope $end
$scope module SoC_testbench $end
$scope module MUV $end
$scope module M $end
$scope task ahbl_read $end
$upscope $end
$scope task ahbl_w_write $end
$upscope $end
$upscope $end
$scope module S $end
$upscope $end
$scope module S0 $end
$scope module register_0 $end
$upscope $end
$scope module register_1 $end
$upscope $end
$scope module register_2 $end
$upscope $end
$upscope $end
$scope module S1 $end
$upscope $end
$scope module S2 $end
$upscope $end
$upscope $end
$upscope $end
$scope module ahbl_master_tb $end
$var wire 1 $" HWRITE $end
$var wire 32 %" HWDATA [31:0] $end
$var wire 2 &" HTRANS [1:0] $end
$var wire 3 '" HSIZE [2:0] $end
$var wire 32 (" HADDR [31:0] $end
$var reg 1 )" HCLK $end
$var reg 32 *" HRDATA [31:0] $end
$var reg 1 +" HREADY $end
$var reg 1 ," HRESETn $end
$scope module MASTER $end
$var wire 1 )" HCLK $end
$var wire 32 -" HRDATA [31:0] $end
$var wire 1 +" HREADY $end
$var wire 1 ," HRESETn $end
$var reg 32 ." HADDR [31:0] $end
$var reg 3 /" HSIZE [2:0] $end
$var reg 2 0" HTRANS [1:0] $end
$var reg 32 1" HWDATA [31:0] $end
$var reg 1 $" HWRITE $end
$scope task ahbl_read $end
$var reg 32 2" addr [31:0] $end
$var reg 3 3" size [2:0] $end
$upscope $end
$scope task ahbl_w_write $end
$var reg 32 4" addr [31:0] $end
$var reg 32 5" data [31:0] $end
$var reg 3 6" size [2:0] $end
$upscope $end
$upscope $end
$upscope $end
$enddefinitions $end
$comment Show the parameter values. $end
$dumpall
b10101011110011011110111100000010 {
b10101011110011011110111100000001 n
b100000 f
b100000 b
b100000 ^
b10101011110011011110111100000000 T
b100000000000000000000000000000 H
b0 G
b1000000000000000000000000000000 F
$end
#0
$dumpvars
bx 6"
bx 5"
bx 4"
bx 3"
bx 2"
bx 1"
bx 0"
bx /"
bx ."
b10111010110111011011111011101111 -"
0,"
1+"
b10111010110111011011111011101111 *"
0)"
bx ("
bx '"
bx &"
bx %"
x$"
0#"
b0 ""
b0 !"
0~
b0 }
b0 |
0z
0y
bx x
bx w
bx v
bx u
0t
b0 s
b0 r
0q
b0 p
b0 o
0m
0l
bx k
bx j
bx i
bx h
b0 g
xe
bx d
b0 c
xa
bx `
b0 _
x]
bx \
bx [
0Z
b0 Y
b0 X
0W
bx V
b0 U
b0 S
b0 R
b0 Q
0P
0O
bx N
bx M
bx L
bx K
b0 J
bx I
b10111010110111011011111011101111 E
bx D
b0 C
b0 B
bx A
bx @
bx ?
bx >
bx =
bx <
bx ;
bx :
bx 9
bx 8
bx 7
b10111010110111011011111011101111 6
bx 5
b10111010110111011011111011101111 4
13
bx 2
bx 1
bx 0
x/
bx .
x-
b0 ,
b0 +
b0 *
b0 )
x(
b0 '
x&
1%
1$
1#
0"
0!
$end
#5
1)"
1!
#10
0)"
0!
#15
1)"
1!
#20
0)"
0!
#25
1)"
1!
#30
0)"
0!
#35
1)"
1!
#40
0)"
0!
#45
1)"
1!
#50
0)"
0!
#55
0]
0a
0e
b0 [
b10 ?
b1 >
b1000000000000000000000000000001 =
1"
1)"
1!
#60
0)"
0!
#65
xz
xy
xm
xl
xP
xO
x~
x#"
bx !"
bx ""
bx |
xq
xt
bx r
bx s
bx o
xW
xZ
bx X
bx Y
bx U
1)"
1!
#66
1-
0(
0&
b1 I
1/
b10 2
b10 8
b10 L
b10 i
b10 v
b1000000000000000000000000000001 5
b1000000000000000000000000000001 7
b1000000000000000000000000000001 @
b1000000000000000000000000000001 K
b1000000000000000000000000000001 h
b1000000000000000000000000000001 u
b10 1
b10 9
b10 A
b10 M
b10 j
b10 w
#70
0)"
0!
#75
1P
0O
0m
0l
0z
0y
bx 4
bx 6
bx E
1W
1Z
b10 X
b10 Y
b1000000000000000000000000000001 U
0q
1t
b10 r
b10 s
b1000000000000000000000000000001 o
0~
1#"
b10 !"
b10 ""
b1000000000000000000000000000001 |
b1 J
b0 1
b0 9
b0 A
b0 M
b0 j
b0 w
b1 0
b1 :
b1 N
b1 \
b1 `
b1 d
b1 k
b1 x
1)"
1!
#77
b10 >
b1000000000000000000000000000010 =
#80
0)"
0!
#85
0P
1a
b10 [
b0 ""
b0 s
b0 Y
1)"
1!
#86
b1000000000000000000000000000010 5
b1000000000000000000000000000010 7
b1000000000000000000000000000010 @
b1000000000000000000000000000010 K
b1000000000000000000000000000010 h
b1000000000000000000000000000010 u
b10 1
b10 9
b10 A
b10 M
b10 j
b10 w
#90
0)"
0!
#95
1P
0a
b0 [
b1 +
b1 R
b1 c
b10 Y
b1000000000000000000000000000010 U
b10 s
b1000000000000000000000000000010 o
b10 ""
b1000000000000000000000000000010 |
b0 1
b0 9
b0 A
b0 M
b0 j
b0 w
b10 0
b10 :
b10 N
b10 \
b10 `
b10 d
b10 k
b10 x
1)"
1!
#100
0)"
0!
#105
0P
1e
b100 [
b0 ""
b0 s
b0 Y
b10 6"
b1 5"
b1000000000000000000000000000001 4"
1,"
1)"
1!
#110
0)"
0!
#115
0e
b0 [
b10 *
b10 Q
b10 g
1)"
1!
#116
1$"
b10 '"
b10 /"
b1000000000000000000000000000001 ("
b1000000000000000000000000000001 ."
b10 &"
b10 0"
#120
0)"
0!
#125
b0 &"
b0 0"
b1 %"
b1 1"
1)"
1!
#127
b10 5"
b1000000000000000000000000000010 4"
#130
0)"
0!
#135
1)"
1!
#136
b1000000000000000000000000000010 ("
b1000000000000000000000000000010 ."
b10 &"
b10 0"
#140
0)"
0!
#145
b0 &"
b0 0"
b10 %"
b10 1"
1)"
1!
#150
0)"
0!
#155
1)"
1!
#160
0)"
0!
#165
1)"
1!
#170
0)"
0!
#175
1)"
1!
#180
0)"
0!
#185
1)"
1!
#190
0)"
0!
#195
1)"
1!
#200
0)"
0!
#205
1)"
1!
#210
0)"
0!
#215
1)"
1!
#220
0)"
0!
#225
1)"
1!
#230
0)"
0!
#235
1)"
1!
#240
0)"
0!
#245
1)"
1!
#250
0)"
0!
#255
1)"
1!
#260
0)"
0!
#265
1)"
1!
#270
0)"
0!
#275
1)"
1!
#280
0)"
0!
#285
1)"
1!
#290
0)"
0!
#295
1)"
1!
#297
b10 <
b1000000000000000000000000000010 ;
#300
0)"
0!
#305
1)"
1!
#306
0/
b10 1
b10 9
b10 A
b10 M
b10 j
b10 w
#310
0)"
0!
#315
1O
0Z
b10 Y
0t
b10 s
0#"
b10 ""
b0 1
b0 9
b0 A
b0 M
b0 j
b0 w
1)"
1!
#320
0)"
0!
#325
0O
b10 4
b10 6
b10 E
b10 .
b10 D
b10 V
b0 ""
b0 s
b0 Y
1)"
1!
#330
0)"
0!
#331
b1000000000000000000000000000001 ;
#335
1)"
1!
#336
b1000000000000000000000000000001 5
b1000000000000000000000000000001 7
b1000000000000000000000000000001 @
b1000000000000000000000000000001 K
b1000000000000000000000000000001 h
b1000000000000000000000000000001 u
b10 1
b10 9
b10 A
b10 M
b10 j
b10 w
#340
0)"
0!
#345
1O
b10 ""
b1000000000000000000000000000001 |
b10 s
b1000000000000000000000000000001 o
b10 Y
b1000000000000000000000000000001 U
b0 1
b0 9
b0 A
b0 M
b0 j
b0 w
1)"
1!
#347
b10 3"
b1000000000000000000000000000010 2"
#350
0)"
0!
#355
0O
b1 4
b1 6
b1 E
b1 .
b1 D
b1 V
b0 Y
b0 s
b0 ""
1)"
1!
#356
0$"
b10 &"
b10 0"
#360
0)"
0!
#361
b1000000000000000000000000000011 ;
#365
b0 &"
b0 0"
1)"
1!
#366
b1000000000000000000000000000011 5
b1000000000000000000000000000011 7
b1000000000000000000000000000011 @
b1000000000000000000000000000011 K
b1000000000000000000000000000011 h
b1000000000000000000000000000011 u
b10 1
b10 9
b10 A
b10 M
b10 j
b10 w
#370
0)"
0!
#375
1O
b10 Y
b1000000000000000000000000000011 U
b10 s
b1000000000000000000000000000011 o
b10 ""
b1000000000000000000000000000011 |
b0 1
b0 9
b0 A
b0 M
b0 j
b0 w
1)"
1!
#380
0)"
0!
#381
b1000000000000000000000000000001 2"
#385
0O
b0 4
b0 6
b0 E
b0 .
b0 D
b0 V
b0 ""
b0 s
b0 Y
1)"
1!
#386
b1000000000000000000000000000001 ("
b1000000000000000000000000000001 ."
b10 &"
b10 0"
#390
0)"
0!
#395
b0 &"
b0 0"
1)"
1!
#400
0)"
0!
#405
1)"
1!
#410
0)"
0!
#411
b1000000000000000000000000000011 2"
#415
1)"
1!
#416
b1000000000000000000000000000011 ("
b1000000000000000000000000000011 ."
b10 &"
b10 0"
#420
0)"
0!
#425
b0 &"
b0 0"
1)"
1!
#430
0)"
0!
#435
1)"
1!
#440
0)"
0!
#445
1)"
1!
#450
0)"
0!
#455
1)"
1!
#460
0)"
0!
#465
1)"
1!
#470
0)"
0!
#475
1)"
1!
#480
0)"
0!
#485
1)"
1!
#490
0)"
0!
#495
1)"
1!
#500
0)"
0!
#505
1)"
1!
#510
0)"
0!
#515
1)"
1!
#520
0)"
0!
#525
1)"
1!
#530
0)"
0!
#535
1)"
1!
#540
0)"
0!
#545
1)"
1!
#550
0)"
0!
#555
1)"
1!
#560
0)"
0!
#565
1)"
1!
#570
0)"
0!
#575
1)"
1!
#580
0)"
0!
#585
1)"
1!
#590
0)"
0!
#591
b100 ?
b11 >
b1 =
#595
1)"
1!
#596
0-
1&
b100 I
1/
b100 2
b100 8
b100 L
b100 i
b100 v
b1 5
b1 7
b1 @
b1 K
b1 h
b1 u
b10 1
b10 9
b10 A
b10 M
b10 j
b10 w
#600
0)"
0!
#605
b0 4
b0 6
b0 E
1z
b100 J
1~
1#"
b100 !"
b10 ""
b1 |
1t
b100 r
b10 s
b1 o
0W
1Z
b100 X
b10 Y
b1 U
b0 1
b0 9
b0 A
b0 M
b0 j
b0 w
b11 0
b11 :
b11 N
b11 \
b11 `
b11 d
b11 k
b11 x
1)"
1!
#607
b10 ?
b100 >
b100000000000000000000000000010 =
#610
0)"
0!
#615
0z
b0 Y
b0 s
b0 ""
1)"
1!
#616
1(
0&
b10 I
b10 2
b10 8
b10 L
b10 i
b10 v
b100000000000000000000000000010 5
b100000000000000000000000000010 7
b100000000000000000000000000010 @
b100000000000000000000000000010 K
b100000000000000000000000000010 h
b100000000000000000000000000010 u
b10 1
b10 9
b10 A
b10 M
b10 j
b10 w
#620
0)"
0!
#625
1m
b10 J
0~
b10 !"
b10 ""
b100000000000000000000000000010 |
1q
b10 r
b10 s
b100000000000000000000000000010 o
b10 X
b10 Y
b100000000000000000000000000010 U
b0 1
b0 9
b0 A
b0 M
b0 j
b0 w
b100 0
b100 :
b100 N
b100 \
b100 `
b100 d
b100 k
b100 x
1)"
1!
#627
b10101010101110111100110011011101 >
b100 =
#630
0)"
0!
#635
0m
b0 Y
b0 s
b0 ""
1)"
1!
#636
0(
1&
b100 I
b100 5
b100 7
b100 @
b100 K
b100 h
b100 u
b10 1
b10 9
b10 A
b10 M
b10 j
b10 w
#640
0)"
0!
#641
b100 6"
b11 5"
b1 4"
#645
1z
b100 J
1~
b10 ""
b100 |
0q
b10 s
b100 o
b10 Y
b100 U
b0 1
b0 9
b0 A
b0 M
b0 j
b0 w
b10101010101110111100110011011101 0
b10101010101110111100110011011101 :
b10101010101110111100110011011101 N
b10101010101110111100110011011101 \
b10101010101110111100110011011101 `
b10101010101110111100110011011101 d
b10101010101110111100110011011101 k
b10101010101110111100110011011101 x
1)"
1!
#646
1$"
b100 '"
b100 /"
b1 ("
b1 ."
b10 &"
b10 0"
#647
b1 ?
b110110111101101111011011 >
b1000 =
#650
0)"
0!
#655
0z
b0 Y
b0 s
b0 ""
b0 &"
b0 0"
b11 %"
b11 1"
1)"
1!
#656
b1 2
b1 8
b1 L
b1 i
b1 v
b1000 5
b1000 7
b1000 @
b1000 K
b1000 h
b1000 u
b10 1
b10 9
b10 A
b10 M
b10 j
b10 w
#657
b10 6"
b100 5"
b100000000000000000000000000010 4"
#660
0)"
0!
#665
1z
b1 !"
b10 ""
b1000 |
b1 r
b10 s
b1000 o
b1 X
b10 Y
b1000 U
b0 1
b0 9
b0 A
b0 M
b0 j
b0 w
b110110111101101111011011 0
b110110111101101111011011 :
b110110111101101111011011 N
b110110111101101111011011 \
b110110111101101111011011 `
b110110111101101111011011 d
b110110111101101111011011 k
b110110111101101111011011 x
1)"
1!
#666
b10 '"
b10 /"
b100000000000000000000000000010 ("
b100000000000000000000000000010 ."
b10 &"
b10 0"
#670
0)"
0!
#675
0z
b0 Y
b0 s
b0 ""
b0 &"
b0 0"
b100 %"
b100 1"
1)"
1!
#677
b10101010101110111100110011011101 5"
b100 4"
#680
0)"
0!
#685
1)"
1!
#686
b100 ("
b100 ."
b10 &"
b10 0"
#690
0)"
0!
#695
b0 &"
b0 0"
b10101010101110111100110011011101 %"
b10101010101110111100110011011101 1"
1)"
1!
#697
b1 6"
b110110111101101111011011 5"
b1000 4"
#700
0)"
0!
#705
1)"
1!
#706
b1 '"
b1 /"
b1000 ("
b1000 ."
b10 &"
b10 0"
#710
0)"
0!
#715
b0 &"
b0 0"
b110110111101101111011011 %"
b110110111101101111011011 1"
1)"
1!
#720
0)"
0!
#725
1)"
1!
#730
0)"
0!
#735
1)"
1!
#740
0)"
0!
#745
1)"
1!
#750
0)"
0!
#755
1)"
1!
#760
0)"
0!
#765
1)"
1!
#767
b1 ;
#770
0)"
0!
#775
1)"
1!
#776
b10 2
b10 8
b10 L
b10 i
b10 v
0/
b1 5
b1 7
b1 @
b1 K
b1 h
b1 u
b10 1
b10 9
b10 A
b10 M
b10 j
b10 w
#780
0)"
0!
#785
1y
0#"
b10 !"
b10 ""
b1 |
0t
b10 r
b10 s
b1 o
0Z
b10 X
b10 Y
b1 U
b0 1
b0 9
b0 A
b0 M
b0 j
b0 w
1)"
1!
#790
0)"
0!
#795
0y
b11011101xxxxxxxxxxxxxxxx00000011 4
b11011101xxxxxxxxxxxxxxxx00000011 6
b11011101xxxxxxxxxxxxxxxx00000011 E
b0 Y
b0 s
b0 ""
b11011101xxxxxxxxxxxxxxxx00000011 '
b11011101xxxxxxxxxxxxxxxx00000011 B
b11011101xxxxxxxxxxxxxxxx00000011 }
1)"
1!
#800
0)"
0!
#801
b100000000000000000000000000010 ;
#805
1)"
1!
#806
1(
0&
b10 I
b100000000000000000000000000010 5
b100000000000000000000000000010 7
b100000000000000000000000000010 @
b100000000000000000000000000010 K
b100000000000000000000000000010 h
b100000000000000000000000000010 u
b10 1
b10 9
b10 A
b10 M
b10 j
b10 w
#810
0)"
0!
#815
b0 4
b0 6
b0 E
1l
b10 Y
b100000000000000000000000000010 U
1q
b10 s
b100000000000000000000000000010 o
0~
b10 ""
b100000000000000000000000000010 |
b10 J
b0 1
b0 9
b0 A
b0 M
b0 j
b0 w
1)"
1!
#817
b1 2"
#820
0)"
0!
#825
0l
b100 4
b100 6
b100 E
b0 ""
b100 )
b100 C
b100 p
b0 s
b0 Y
1)"
1!
#826
b10 '"
b10 /"
0$"
b1 ("
b1 ."
b10 &"
b10 0"
#830
0)"
0!
#831
b100000000000000000000100000001 ;
#835
b0 &"
b0 0"
1)"
1!
#836
b100000000000000000000100000001 5
b100000000000000000000100000001 7
b100000000000000000000100000001 @
b100000000000000000000100000001 K
b100000000000000000000100000001 h
b100000000000000000000100000001 u
b10 1
b10 9
b10 A
b10 M
b10 j
b10 w
#840
0)"
0!
#845
1l
b10 ""
b100000000000000000000100000001 |
b10 s
b100000000000000000000100000001 o
b10 Y
b100000000000000000000100000001 U
b0 1
b0 9
b0 A
b0 M
b0 j
b0 w
1)"
1!
#850
0)"
0!
#851
b100000000000000000000000000010 2"
#855
0l
bx 4
bx 6
bx E
b0 Y
b0 s
bx )
bx C
bx p
b0 ""
1)"
1!
#856
b100000000000000000000000000010 ("
b100000000000000000000000000010 ."
b10 &"
b10 0"
#860
0)"
0!
#861
b100 ;
#865
b0 &"
b0 0"
1)"
1!
#866
0(
1&
b100 I
b100 5
b100 7
b100 @
b100 K
b100 h
b100 u
b10 1
b10 9
b10 A
b10 M
b10 j
b10 w
#870
0)"
0!
#875
b11011101xxxxxxxxxxxxxxxx00000011 4
b11011101xxxxxxxxxxxxxxxx00000011 6
b11011101xxxxxxxxxxxxxxxx00000011 E
1y
b10 Y
b100 U
0q
b10 s
b100 o
1~
b10 ""
b100 |
b100 J
b0 1
b0 9
b0 A
b0 M
b0 j
b0 w
1)"
1!
#880
0)"
0!
#881
b100000000000000000000100000001 2"
#885
b10101010101110111100110011011101 4
b10101010101110111100110011011101 6
b10101010101110111100110011011101 E
0y
b10101010101110111100110011011101 '
b10101010101110111100110011011101 B
b10101010101110111100110011011101 }
b0 ""
b0 s
b0 Y
1)"
1!
#886
b100000000000000000000100000001 ("
b100000000000000000000100000001 ."
b10 &"
b10 0"
#890
0)"
0!
#891
b1 <
#895
b0 &"
b0 0"
1)"
1!
#896
b1 2
b1 8
b1 L
b1 i
b1 v
b10 1
b10 9
b10 A
b10 M
b10 j
b10 w
#900
0)"
0!
#905
1y
b1 !"
b10 ""
b1 r
b10 s
b1 X
b10 Y
b0 1
b0 9
b0 A
b0 M
b0 j
b0 w
1)"
1!
#910
0)"
0!
#911
b100 2"
#915
0y
b1100110011011101 4
b1100110011011101 6
b1100110011011101 E
b0 Y
b0 s
b0 ""
b1100110011011101 '
b1100110011011101 B
b1100110011011101 }
1)"
1!
#916
b100 ("
b100 ."
b10 &"
b10 0"
#920
0)"
0!
#921
b110 ;
#925
b0 &"
b0 0"
1)"
1!
#926
b110 5
b110 7
b110 @
b110 K
b110 h
b110 u
b10 1
b10 9
b10 A
b10 M
b10 j
b10 w
#930
0)"
0!
#935
1y
b10 Y
b110 U
b10 s
b110 o
b10 ""
b110 |
b0 1
b0 9
b0 A
b0 M
b0 j
b0 w
1)"
1!
#940
0)"
0!
#941
b1 3"
#945
b1010101010111011 4
b1010101010111011 6
b1010101010111011 E
0y
b1010101010111011 '
b1010101010111011 B
b1010101010111011 }
b0 ""
b0 s
b0 Y
1)"
1!
#946
b1 '"
b1 /"
b10 &"
b10 0"
#950
0)"
0!
#951
b0 <
b1000 ;
#955
b0 &"
b0 0"
1)"
1!
#956
b0 2
b0 8
b0 L
b0 i
b0 v
b1000 5
b1000 7
b1000 @
b1000 K
b1000 h
b1000 u
b10 1
b10 9
b10 A
b10 M
b10 j
b10 w
#960
0)"
0!
#965
1y
b0 !"
b10 ""
b1000 |
b0 r
b10 s
b1000 o
b0 X
b10 Y
b1000 U
b0 1
b0 9
b0 A
b0 M
b0 j
b0 w
1)"
1!
#970
0)"
0!
#971
b110 2"
#975
0y
b11011011 4
b11011011 6
b11011011 E
b0 Y
b0 s
b0 ""
b11011011 '
b11011011 B
b11011011 }
1)"
1!
#976
b110 ("
b110 ."
b10 &"
b10 0"
#980
0)"
0!
#981
b1 <
#985
b0 &"
b0 0"
1)"
1!
#986
b1 2
b1 8
b1 L
b1 i
b1 v
b10 1
b10 9
b10 A
b10 M
b10 j
b10 w
#990
0)"
0!
#995
1y
b1 X
b10 Y
b1 r
b10 s
b1 !"
b10 ""
b0 1
b0 9
b0 A
b0 M
b0 j
b0 w
1)"
1!
#1000
0)"
0!
#1001
b0 3"
b1000 2"
#1005
b1101101111011011 4
b1101101111011011 6
b1101101111011011 E
0y
b1101101111011011 '
b1101101111011011 B
b1101101111011011 }
b0 ""
b0 s
b0 Y
1)"
1!
#1006
b0 '"
b0 /"
b1000 ("
b1000 ."
b10 &"
b10 0"
#1010
0)"
0!
#1015
b0 &"
b0 0"
1)"
1!
#1020
0)"
0!
#1025
1)"
1!
#1030
0)"
0!
#1031
b1 3"
#1035
1)"
1!
#1036
b1 '"
b1 /"
b10 &"
b10 0"
#1040
0)"
0!
#1045
b0 &"
b0 0"
1)"
1!
