MS1/SoC_tb.vcd
$date
	Sat Sep 21 02:50:37 2024
$end
$version
	Icarus Verilog
$end
$timescale
	1s
$end
$scope module SoC_tb $end
$var reg 1 ! HCLK $end
$var reg 1 " HRESETn $end
$scope module MUV $end
$var wire 1 ! HCLK $end
$var wire 1 " HRESETn $end
$var wire 1 # S0_HREADYOUT $end
$var wire 32 $ S1_HRDATA [31:0] $end
$var wire 1 % S1_HREADYOUT $end
$var wire 32 & S2_HRDATA [31:0] $end
$var wire 1 ' S2_HREADYOUT $end
$var wire 32 ( S3_HRDATA [31:0] $end
$var wire 1 ) S3_HREADYOUT $end
$var wire 1 * S3_HSEL $end
$var wire 1 + S2_HSEL $end
$var wire 1 , S1_HSEL $end
$var wire 32 - S0_REGISTER_2 [31:0] $end
$var wire 32 . S0_REGISTER_1 [31:0] $end
$var wire 32 / S0_REGISTER_0 [31:0] $end
$var wire 1 0 S0_HSEL $end
$var wire 32 1 S0_HRDATA [31:0] $end
$var wire 1 2 HWRITE $end
$var wire 32 3 HWDATA [31:0] $end
$var wire 2 4 HTRANS [1:0] $end
$var wire 3 5 HSIZE [2:0] $end
$var wire 1 6 HREADY $end
$var wire 32 7 HRDATA [31:0] $end
$var wire 32 8 HADDR [31:0] $end
$scope module M $end
$var wire 1 ! HCLK $end
$var wire 1 " HRESETn $end
$var wire 1 6 HREADY $end
$var wire 32 9 HRDATA [31:0] $end
$var reg 32 : HADDR [31:0] $end
$var reg 3 ; HSIZE [2:0] $end
$var reg 2 < HTRANS [1:0] $end
$var reg 32 = HWDATA [31:0] $end
$var reg 1 2 HWRITE $end
$scope task ahbl_read $end
$var reg 32 > addr [31:0] $end
$var reg 3 ? size [2:0] $end
$upscope $end
$scope task ahbl_w_write $end
$var reg 32 @ addr [31:0] $end
$var reg 32 A data [31:0] $end
$var reg 3 B size [2:0] $end
$upscope $end
$upscope $end
$scope module S $end
$var wire 32 C HADDR [31:0] $end
$var wire 1 ! HCLK $end
$var wire 1 " HRESETn $end
$var wire 2 D HTRANS [1:0] $end
$var wire 1 # S0_HREADYOUT $end
$var wire 32 E S1_HRDATA [31:0] $end
$var wire 1 % S1_HREADYOUT $end
$var wire 32 F S2_HRDATA [31:0] $end
$var wire 1 ' S2_HREADYOUT $end
$var wire 32 G S3_HRDATA [31:0] $end
$var wire 1 ) S3_HREADYOUT $end
$var wire 1 * S3_HSEL $end
$var wire 1 + S2_HSEL $end
$var wire 1 , S1_HSEL $end
$var wire 1 0 S0_HSEL $end
$var wire 32 H S0_HRDATA [31:0] $end
$var wire 1 6 HREADY $end
$var wire 32 I HRDATA [31:0] $end
$var parameter 32 J S0 $end
$var parameter 32 K S1 $end
$var parameter 32 L S2 $end
$var parameter 32 M S3 $end
$var reg 4 N sel [3:0] $end
$var reg 4 O sel_d [3:0] $end
$upscope $end
$scope module S0 $end
$var wire 32 P HADDR [31:0] $end
$var wire 1 ! HCLK $end
$var wire 1 6 HREADY $end
$var wire 1 # HREADYOUT $end
$var wire 1 " HRESETn $end
$var wire 1 0 HSEL $end
$var wire 3 Q HSIZE [2:0] $end
$var wire 2 R HTRANS [1:0] $end
$var wire 32 S HWDATA [31:0] $end
$var wire 1 2 HWRITE $end
$var wire 1 T ahbl_read $end
$var wire 1 U ahbl_we $end
$var wire 32 V register_2_output [31:0] $end
$var wire 32 W register_1_output [31:0] $end
$var wire 32 X register_0_output [31:0] $end
$var parameter 32 Y ID $end
$var reg 32 Z HADDR_d [31:0] $end
$var reg 32 [ HRDATA [31:0] $end
$var reg 1 \ HSEL_d $end
$var reg 3 ] HSIZE_d [2:0] $end
$var reg 2 ^ HTRANS_d [1:0] $end
$var reg 1 _ HWRITE_d $end
$var reg 3 ` load [2:0] $end
$scope module register_0 $end
$var wire 32 a D [31:0] $end
$var wire 1 ! clk $end
$var wire 1 b load $end
$var wire 1 " rst_n $end
$var parameter 32 c n $end
$var reg 32 d Q [31:0] $end
$upscope $end
$scope module register_1 $end
$var wire 32 e D [31:0] $end
$var wire 1 ! clk $end
$var wire 1 f load $end
$var wire 1 " rst_n $end
$var parameter 32 g n $end
$var reg 32 h Q [31:0] $end
$upscope $end
$scope module register_2 $end
$var wire 32 i D [31:0] $end
$var wire 1 ! clk $end
$var wire 1 j load $end
$var wire 1 " rst_n $end
$var parameter 32 k n $end
$var reg 32 l Q [31:0] $end
$upscope $end
$upscope $end
$scope module S1 $end
$var wire 32 m HADDR [31:0] $end
$var wire 1 ! HCLK $end
$var wire 32 n HRDATA [31:0] $end
$var wire 1 6 HREADY $end
$var wire 1 % HREADYOUT $end
$var wire 1 " HRESETn $end
$var wire 1 , HSEL $end
$var wire 3 o HSIZE [2:0] $end
$var wire 2 p HTRANS [1:0] $end
$var wire 32 q HWDATA [31:0] $end
$var wire 1 2 HWRITE $end
$var wire 1 r ahbl_we $end
$var parameter 32 s ID $end
$var reg 32 t HADDR_d [31:0] $end
$var reg 1 u HSEL_d $end
$var reg 3 v HSIZE_d [2:0] $end
$var reg 2 w HTRANS_d [1:0] $end
$var reg 1 x HWRITE_d $end
$upscope $end
$scope module S2 $end
$var wire 32 y HADDR [31:0] $end
$var wire 1 ! HCLK $end
$var wire 32 z HRDATA [31:0] $end
$var wire 1 6 HREADY $end
$var wire 1 ' HREADYOUT $end
$var wire 1 " HRESETn $end
$var wire 1 + HSEL $end
$var wire 3 { HSIZE [2:0] $end
$var wire 2 | HTRANS [1:0] $end
$var wire 32 } HWDATA [31:0] $end
$var wire 1 2 HWRITE $end
$var wire 1 ~ ahbl_we $end
$var parameter 32 !" ID $end
$var reg 32 "" HADDR_d [31:0] $end
$var reg 1 #" HSEL_d $end
$var reg 3 $" HSIZE_d [2:0] $end
$var reg 2 %" HTRANS_d [1:0] $end
$var reg 1 &" HWRITE_d $end
$upscope $end
$scope module S3 $end
$var wire 32 '" HADDR [31:0] $end
$var wire 1 ! HCLK $end
$var wire 32 (" HRDATA [31:0] $end
$var wire 1 6 HREADY $end
$var wire 1 ) HREADYOUT $end
$var wire 1 " HRESETn $end
$var wire 1 * HSEL $end
$var wire 3 )" HSIZE [2:0] $end
$var wire 2 *" HTRANS [1:0] $end
$var wire 32 +" HWDATA [31:0] $end
$var wire 1 2 HWRITE $end
$var wire 1 ," ahbl_we $end
$var parameter 32 -" ID $end
$var reg 32 ." HADDR_d [31:0] $end
$var reg 1 /" HSEL_d $end
$var reg 3 0" HSIZE_d [2:0] $end
$var reg 2 1" HTRANS_d [1:0] $end
$var reg 1 2" HWRITE_d $end
$upscope $end
$upscope $end
$upscope $end
$enddefinitions $end
$comment Show the parameter values. $end
$dumpall
b10101011110011011110111100000011 -"
b10101011110011011110111100000010 !"
b10101011110011011110111100000001 s
b100000 k
b100000 g
b100000 c
b10101011110011011110111100000000 Y
b10000000000000000000000000000000 M
b0 L
b100000000000000000000000000000 K
b1000000000000000000000000000000 J
$end
#0
$dumpvars
02"
b0 1"
b0 0"
0/"
b0 ."
0,"
bx +"
bx *"
bx )"
b10101011110011011110111100000011 ("
bx '"
0&"
b0 %"
b0 $"
0#"
b0 ""
0~
bx }
bx |
bx {
b10101011110011011110111100000010 z
bx y
0x
b0 w
b0 v
0u
b0 t
0r
bx q
bx p
bx o
b10101011110011011110111100000001 n
bx m
b0 l
xj
bx i
b0 h
xf
bx e
b0 d
xb
bx a
bx `
0_
b0 ^
b0 ]
0\
bx [
b0 Z
b0 X
b0 W
b0 V
0U
0T
bx S
bx R
bx Q
bx P
b0 O
bx N
b10111010110111011011111011101111 I
bx H
b10101011110011011110111100000011 G
b10101011110011011110111100000010 F
b10101011110011011110111100000001 E
bx D
bx C
bx B
bx A
bx @
bx ?
bx >
bx =
bx <
bx ;
bx :
b10111010110111011011111011101111 9
bx 8
b10111010110111011011111011101111 7
16
bx 5
bx 4
bx 3
x2
bx 1
x0
b0 /
b0 .
b0 -
x,
x+
x*
1)
b10101011110011011110111100000011 (
1'
b10101011110011011110111100000010 &
1%
b10101011110011011110111100000001 $
1#
0"
0!
$end
#5
1!
#10
0!
#15
1!
#20
0!
#25
1!
#30
0!
#35
1!
#40
0!
#45
1!
#50
0!
#55
0b
0f
0j
b0 `
1"
1!
#60
0!
#65
x,"
x~
xr
xU
xT
x/"
x2"
bx 0"
bx 1"
bx ."
x#"
x&"
bx $"
bx %"
bx ""
xu
xx
bx v
bx w
bx t
x\
x_
bx ]
bx ^
bx Z
1!
#70
0!
#75
1!
#80
0!
#85
1!
#90
0!
#95
1!
#100
0!
#105
1!
#110
0!
#115
1!
#120
0!
#125
1!
#130
0!
#135
1!
#140
0!
#145
1!
#150
0!
#155
1!
b10 B
b10010001101000101011001110000 A
b0 @
#156
00
0,
1+
0*
b100 N
12
b10 5
b10 ;
b10 Q
b10 o
b10 {
b10 )"
b0 8
b0 :
b0 C
b0 P
b0 m
b0 y
b0 '"
b10 4
b10 <
b10 D
b10 R
b10 p
b10 |
b10 *"
#160
0!
#165
b10101011110011011110111100000010 7
b10101011110011011110111100000010 9
b10101011110011011110111100000010 I
0,"
1~
0r
0U
0T
b100 O
0/"
12"
b10 0"
b10 1"
b0 ."
1#"
1&"
b10 $"
b10 %"
b0 ""
0u
1x
b10 v
b10 w
b0 t
0\
1_
b10 ]
b10 ^
b0 Z
b0 4
b0 <
b0 D
b0 R
b0 p
b0 |
b0 *"
b10010001101000101011001110000 3
b10010001101000101011001110000 =
b10010001101000101011001110000 S
b10010001101000101011001110000 a
b10010001101000101011001110000 e
b10010001101000101011001110000 i
b10010001101000101011001110000 q
b10010001101000101011001110000 }
b10010001101000101011001110000 +"
1!
#167
b10010001101000101011001110100 A
b100000000000000000000000000000 @
#170
0!
#175
0~
b0 ^
b0 w
b0 %"
b0 1"
1!
#176
1,
0+
b10 N
b100000000000000000000000000000 8
b100000000000000000000000000000 :
b100000000000000000000000000000 C
b100000000000000000000000000000 P
b100000000000000000000000000000 m
b100000000000000000000000000000 y
b100000000000000000000000000000 '"
b10 4
b10 <
b10 D
b10 R
b10 p
b10 |
b10 *"
#180
0!
#185
b10101011110011011110111100000001 7
b10101011110011011110111100000001 9
b10101011110011011110111100000001 I
1r
b10 O
b10 1"
b100000000000000000000000000000 ."
0#"
b10 %"
b100000000000000000000000000000 ""
1u
b10 w
b100000000000000000000000000000 t
b10 ^
b100000000000000000000000000000 Z
b0 4
b0 <
b0 D
b0 R
b0 p
b0 |
b0 *"
b10010001101000101011001110100 3
b10010001101000101011001110100 =
b10010001101000101011001110100 S
b10010001101000101011001110100 a
b10010001101000101011001110100 e
b10010001101000101011001110100 i
b10010001101000101011001110100 q
b10010001101000101011001110100 }
b10010001101000101011001110100 +"
1!
#187
b10010001101000101011001111000 A
b1000000000000000000000000000000 @
#190
0!
#195
0r
b0 ^
b0 w
b0 %"
b0 1"
1!
#196
10
0,
b1 N
b1000000000000000000000000000000 8
b1000000000000000000000000000000 :
b1000000000000000000000000000000 C
b1000000000000000000000000000000 P
b1000000000000000000000000000000 m
b1000000000000000000000000000000 y
b1000000000000000000000000000000 '"
b10 4
b10 <
b10 D
b10 R
b10 p
b10 |
b10 *"
#200
0!
#205
bx 7
bx 9
bx I
1U
b1 O
b10 1"
b1000000000000000000000000000000 ."
b10 %"
b1000000000000000000000000000000 ""
0u
b10 w
b1000000000000000000000000000000 t
1\
b10 ^
b1000000000000000000000000000000 Z
b0 4
b0 <
b0 D
b0 R
b0 p
b0 |
b0 *"
b10010001101000101011001111000 3
b10010001101000101011001111000 =
b10010001101000101011001111000 S
b10010001101000101011001111000 a
b10010001101000101011001111000 e
b10010001101000101011001111000 i
b10010001101000101011001111000 q
b10010001101000101011001111000 }
b10010001101000101011001111000 +"
1!
#207
b1010101010101010101010101010101 A
b1000001000000000000000000000000 @
#210
0!
#215
0U
1b
b1 `
b0 ^
b0 w
b0 %"
b0 1"
1!
#216
b1000001000000000000000000000000 8
b1000001000000000000000000000000 :
b1000001000000000000000000000000 C
b1000001000000000000000000000000 P
b1000001000000000000000000000000 m
b1000001000000000000000000000000 y
b1000001000000000000000000000000 '"
b10 4
b10 <
b10 D
b10 R
b10 p
b10 |
b10 *"
#220
0!
#225
1U
0b
b0 `
b10 1"
b1000001000000000000000000000000 ."
b10 %"
b1000001000000000000000000000000 ""
b10 w
b1000001000000000000000000000000 t
b10 ^
b1000001000000000000000000000000 Z
b10010001101000101011001111000 /
b10010001101000101011001111000 X
b10010001101000101011001111000 d
b0 4
b0 <
b0 D
b0 R
b0 p
b0 |
b0 *"
b1010101010101010101010101010101 3
b1010101010101010101010101010101 =
b1010101010101010101010101010101 S
b1010101010101010101010101010101 a
b1010101010101010101010101010101 e
b1010101010101010101010101010101 i
b1010101010101010101010101010101 q
b1010101010101010101010101010101 }
b1010101010101010101010101010101 +"
1!
#227
b10010001101000101011001111100 A
b10000000000000000000000000000000 @
#230
0!
#235
0U
1f
b10 `
b0 ^
b0 w
b0 %"
b0 1"
1!
#236
00
1*
b1000 N
b10000000000000000000000000000000 8
b10000000000000000000000000000000 :
b10000000000000000000000000000000 C
b10000000000000000000000000000000 P
b10000000000000000000000000000000 m
b10000000000000000000000000000000 y
b10000000000000000000000000000000 '"
b10 4
b10 <
b10 D
b10 R
b10 p
b10 |
b10 *"
#240
0!
#245
b10101011110011011110111100000011 7
b10101011110011011110111100000011 9
b10101011110011011110111100000011 I
1,"
0f
b0 `
b1000 O
1/"
b10 1"
b10000000000000000000000000000000 ."
b10 %"
b10000000000000000000000000000000 ""
b10 w
b10000000000000000000000000000000 t
0\
b10 ^
b10000000000000000000000000000000 Z
b1010101010101010101010101010101 .
b1010101010101010101010101010101 W
b1010101010101010101010101010101 h
b0 4
b0 <
b0 D
b0 R
b0 p
b0 |
b0 *"
b10010001101000101011001111100 3
b10010001101000101011001111100 =
b10010001101000101011001111100 S
b10010001101000101011001111100 a
b10010001101000101011001111100 e
b10010001101000101011001111100 i
b10010001101000101011001111100 q
b10010001101000101011001111100 }
b10010001101000101011001111100 +"
1!
#250
0!
#255
0,"
b0 ^
b0 w
b0 %"
b0 1"
1!
#260
0!
#265
1!
#270
0!
#275
1!
#280
0!
#285
1!
#290
0!
#295
1!
#300
0!
#305
1!
#310
0!
#315
1!
#320
0!
#325
1!
#330
0!
#335
1!
#340
0!
#345
1!
#347
b10 ?
b1000001000000000000000000000000 >
#350
0!
#355
1!
#356
10
0*
b1 N
02
b1000001000000000000000000000000 8
b1000001000000000000000000000000 :
b1000001000000000000000000000000 C
b1000001000000000000000000000000 P
b1000001000000000000000000000000 m
b1000001000000000000000000000000 y
b1000001000000000000000000000000 '"
b10 4
b10 <
b10 D
b10 R
b10 p
b10 |
b10 *"
#360
0!
#365
bx 7
bx 9
bx I
1T
b1 O
0/"
02"
b10 1"
b1000001000000000000000000000000 ."
0&"
b10 %"
b1000001000000000000000000000000 ""
0x
b10 w
b1000001000000000000000000000000 t
1\
0_
b10 ^
b1000001000000000000000000000000 Z
b0 4
b0 <
b0 D
b0 R
b0 p
b0 |
b0 *"
1!
#370
0!
#375
0T
b1010101010101010101010101010101 7
b1010101010101010101010101010101 9
b1010101010101010101010101010101 I
b1010101010101010101010101010101 1
b1010101010101010101010101010101 H
b1010101010101010101010101010101 [
b0 ^
b0 w
b0 %"
b0 1"
1!
