MS2_MAC/MS1/SoC_tb.vcd
$date
	Sun Sep 22 11:26:46 2024
$end
$version
	Icarus Verilog
$end
$timescale
	1s
$end
$scope module SoC_testbench $end
$var reg 1 ! HCLK $end
$var reg 1 " HRESETn $end
$scope module MUV $end
$var wire 1 ! HCLK $end
$var wire 1 " HRESETn $end
$var wire 1 # S2_HSEL $end
$var wire 1 $ S2_HREADYOUT $end
$var wire 32 % S2_HRDATA [31:0] $end
$var wire 1 & S1_HSEL $end
$var wire 1 ' S1_HREADYOUT $end
$var wire 32 ( S1_HRDATA [31:0] $end
$var wire 32 ) S0_REGISTER_2 [31:0] $end
$var wire 32 * S0_REGISTER_1 [31:0] $end
$var wire 32 + S0_REGISTER_0 [31:0] $end
$var wire 1 , S0_HSEL $end
$var wire 1 - S0_HREADYOUT $end
$var wire 32 . S0_HRDATA [31:0] $end
$var wire 1 / HWRITE $end
$var wire 32 0 HWDATA [31:0] $end
$var wire 2 1 HTRANS [1:0] $end
$var wire 3 2 HSIZE [2:0] $end
$var wire 1 3 HREADY $end
$var wire 32 4 HRDATA [31:0] $end
$var wire 32 5 HADDR [31:0] $end
$scope module M $end
$var wire 1 ! HCLK $end
$var wire 1 " HRESETn $end
$var wire 1 3 HREADY $end
$var wire 32 6 HRDATA [31:0] $end
$var reg 32 7 HADDR [31:0] $end
$var reg 3 8 HSIZE [2:0] $end
$var reg 2 9 HTRANS [1:0] $end
$var reg 32 : HWDATA [31:0] $end
$var reg 1 / HWRITE $end
$scope task ahbl_read $end
$var reg 32 ; addr [31:0] $end
$var reg 3 < size [2:0] $end
$upscope $end
$scope task ahbl_w_write $end
$var reg 32 = addr [31:0] $end
$var reg 32 > data [31:0] $end
$var reg 3 ? size [2:0] $end
$upscope $end
$upscope $end
$scope module S $end
$var wire 32 @ HADDR [31:0] $end
$var wire 1 ! HCLK $end
$var wire 1 " HRESETn $end
$var wire 2 A HTRANS [1:0] $end
$var wire 1 # S2_HSEL $end
$var wire 1 $ S2_HREADYOUT $end
$var wire 32 B S2_HRDATA [31:0] $end
$var wire 1 & S1_HSEL $end
$var wire 1 ' S1_HREADYOUT $end
$var wire 32 C S1_HRDATA [31:0] $end
$var wire 1 , S0_HSEL $end
$var wire 1 - S0_HREADYOUT $end
$var wire 32 D S0_HRDATA [31:0] $end
$var wire 1 3 HREADY $end
$var wire 32 E HRDATA [31:0] $end
$var parameter 32 F S0 $end
$var parameter 32 G S1 $end
$var parameter 32 H S2 $end
$var reg 3 I sel [2:0] $end
$var reg 3 J sel_d [2:0] $end
$upscope $end
$scope module S0 $end
$var wire 32 K HADDR [31:0] $end
$var wire 1 ! HCLK $end
$var wire 1 3 HREADY $end
$var wire 1 " HRESETn $end
$var wire 1 , HSEL $end
$var wire 3 L HSIZE [2:0] $end
$var wire 2 M HTRANS [1:0] $end
$var wire 32 N HWDATA [31:0] $end
$var wire 1 / HWRITE $end
$var wire 1 O ahbl_read $end
$var wire 1 P ahbl_we $end
$var wire 32 Q register_2_output [31:0] $end
$var wire 32 R register_1_output [31:0] $end
$var wire 32 S register_0_output [31:0] $end
$var parameter 32 T ID $end
$var reg 32 U HADDR_d [31:0] $end
$var reg 32 V HRDATA [31:0] $end
$var reg 1 - HREADYOUT $end
$var reg 1 W HSEL_d $end
$var reg 3 X HSIZE_d [2:0] $end
$var reg 2 Y HTRANS_d [1:0] $end
$var reg 1 Z HWRITE_d $end
$var reg 3 [ load [2:0] $end
$scope module register_0 $end
$var wire 32 \ D [31:0] $end
$var wire 1 ! clk $end
$var wire 1 ] load $end
$var wire 1 " rst_n $end
$var parameter 32 ^ n $end
$var reg 32 _ Q [31:0] $end
$upscope $end
$scope module register_1 $end
$var wire 32 ` D [31:0] $end
$var wire 1 ! clk $end
$var wire 1 a load $end
$var wire 1 " rst_n $end
$var parameter 32 b n $end
$var reg 32 c Q [31:0] $end
$upscope $end
$scope module register_2 $end
$var wire 32 d D [31:0] $end
$var wire 1 ! clk $end
$var wire 1 e load $end
$var wire 1 " rst_n $end
$var parameter 32 f n $end
$var reg 32 g Q [31:0] $end
$upscope $end
$upscope $end
$scope module S1 $end
$var wire 32 h HADDR [31:0] $end
$var wire 1 ! HCLK $end
$var wire 1 3 HREADY $end
$var wire 1 " HRESETn $end
$var wire 1 & HSEL $end
$var wire 3 i HSIZE [2:0] $end
$var wire 2 j HTRANS [1:0] $end
$var wire 32 k HWDATA [31:0] $end
$var wire 1 / HWRITE $end
$var wire 1 l ahbl_rd $end
$var wire 1 m ahbl_we $end
$var parameter 32 n ID $end
$var reg 32 o HADDR_d [31:0] $end
$var reg 32 p HRDATA [31:0] $end
$var reg 1 ' HREADYOUT $end
$var reg 1 q HSEL_d $end
$var reg 3 r HSIZE_d [2:0] $end
$var reg 2 s HTRANS_d [1:0] $end
$var reg 1 t HWRITE_d $end
$upscope $end
$scope module S2 $end
$var wire 32 u HADDR [31:0] $end
$var wire 1 ! HCLK $end
$var wire 1 3 HREADY $end
$var wire 1 " HRESETn $end
$var wire 1 # HSEL $end
$var wire 3 v HSIZE [2:0] $end
$var wire 2 w HTRANS [1:0] $end
$var wire 32 x HWDATA [31:0] $end
$var wire 1 / HWRITE $end
$var wire 1 y ahbl_rd $end
$var wire 1 z ahbl_we $end
$var parameter 32 { ID $end
$var reg 32 | HADDR_d [31:0] $end
$var reg 32 } HRDATA [31:0] $end
$var reg 1 $ HREADYOUT $end
$var reg 1 ~ HSEL_d $end
$var reg 3 !" HSIZE_d [2:0] $end
$var reg 2 "" HTRANS_d [1:0] $end
$var reg 1 #" HWRITE_d $end
$upscope $end
$upscope $end
$upscope $end
$enddefinitions $end
$comment Show the parameter values. $end
$dumpall
b10101011110011011110111100000010 {
b10101011110011011110111100000001 n
b100000 f
b100000 b
b100000 ^
b10101011110011011110111100000000 T
b100000000000000000000000000000 H
b0 G
b1000000000000000000000000000000 F
$end
#0
$dumpvars
0#"
b0 ""
b0 !"
0~
b0 }
b0 |
0z
0y
bx x
bx w
bx v
bx u
0t
b0 s
b0 r
0q
b0 p
b0 o
0m
0l
bx k
bx j
bx i
bx h
b0 g
xe
bx d
b0 c
xa
bx `
b0 _
x]
bx \
bx [
0Z
b0 Y
b0 X
0W
bx V
b0 U
b0 S
b0 R
b0 Q
0P
0O
bx N
bx M
bx L
bx K
b0 J
bx I
b10111010110111011011111011101111 E
bx D
b0 C
b0 B
bx A
bx @
bx ?
bx >
bx =
bx <
bx ;
bx :
bx 9
bx 8
bx 7
b10111010110111011011111011101111 6
bx 5
b10111010110111011011111011101111 4
13
bx 2
bx 1
bx 0
x/
bx .
x-
x,
b0 +
b0 *
b0 )
b0 (
x'
x&
b0 %
x$
x#
0"
0!
$end
#5
1!
#10
0!
#15
1!
#20
0!
#25
1!
#30
0!
#35
1!
#40
0!
#45
1!
#50
0!
#55
0]
0a
0e
b0 [
1"
1!
#60
0!
#65
xz
xy
xm
xl
xP
xO
x~
x#"
bx !"
bx ""
bx |
xq
xt
bx r
bx s
bx o
xW
xZ
bx X
bx Y
bx U
1!
#70
0!
#75
1!
#80
0!
#85
1!
#90
0!
#95
1!
#100
0!
#105
1!
#110
0!
#115
1!
#120
0!
#125
1!
#130
0!
#135
1!
#140
0!
#145
1!
#150
0!
#155
1!
b10 ?
b1 >
b1000000000000000000000000000001 =
#156
1,
0&
0#
b1 I
1/
b10 2
b10 8
b10 L
b10 i
b10 v
b1000000000000000000000000000001 5
b1000000000000000000000000000001 7
b1000000000000000000000000000001 @
b1000000000000000000000000000001 K
b1000000000000000000000000000001 h
b1000000000000000000000000000001 u
b10 1
b10 9
b10 A
b10 M
b10 j
b10 w
#160
0!
#165
x3
bx 4
bx 6
bx E
0z
0y
0m
0l
1P
0O
b1 J
0~
1#"
b10 !"
b10 ""
b1000000000000000000000000000001 |
0q
1t
b10 r
b10 s
b1000000000000000000000000000001 o
1W
1Z
b10 X
b10 Y
b1000000000000000000000000000001 U
b0 1
b0 9
b0 A
b0 M
b0 j
b0 w
b1 0
b1 :
b1 N
b1 \
b1 `
b1 d
b1 k
b1 x
1!
#170
0!
#175
b10 >
b1000000000000000000000000000010 =
1a
13
b10 [
1-
1!
#180
0!
#185
0P
1-
b0 ""
b0 s
b0 Y
b1 *
b1 R
b1 c
1!
#186
b1000000000000000000000000000010 5
b1000000000000000000000000000010 7
b1000000000000000000000000000010 @
b1000000000000000000000000000010 K
b1000000000000000000000000000010 h
b1000000000000000000000000000010 u
b10 1
b10 9
b10 A
b10 M
b10 j
b10 w
#190
0!
#195
1P
0a
b0 [
b10 Y
b1000000000000000000000000000010 U
b10 s
b1000000000000000000000000000010 o
b10 ""
b1000000000000000000000000000010 |
b0 1
b0 9
b0 A
b0 M
b0 j
b0 w
b10 0
b10 :
b10 N
b10 \
b10 `
b10 d
b10 k
b10 x
1!
#200
0!
#205
0P
1e
b100 [
1-
b0 ""
b0 s
b0 Y
1!
#210
0!
#215
0e
b0 [
b10 )
b10 Q
b10 g
1!
#220
0!
#225
1!
#230
0!
#235
1!
#240
0!
#245
1!
#250
0!
#255
1!
#260
0!
#265
1!
#270
0!
#275
1!
#280
0!
#285
1!
#290
0!
#295
1!
#300
0!
#305
1!
#310
0!
#315
1!
#320
0!
#325
1!
#330
0!
#335
1!
#340
0!
#345
1!
#350
0!
#355
1!
#360
0!
#365
1!
#370
0!
#375
1!
#380
0!
#385
1!
#390
0!
#395
1!
#397
b10 <
b1000000000000000000000000000010 ;
#400
0!
#405
1!
#406
0/
b10 1
b10 9
b10 A
b10 M
b10 j
b10 w
#410
0!
#415
1O
0Z
b10 Y
0t
b10 s
0#"
b10 ""
b0 1
b0 9
b0 A
b0 M
b0 j
b0 w
1!
#420
0!
#421
b1000000000000000000000000000001 ;
#425
0O
b10 4
b10 6
b10 E
b10 .
b10 D
b10 V
1-
b0 ""
b0 s
b0 Y
1!
#426
b1000000000000000000000000000001 5
b1000000000000000000000000000001 7
b1000000000000000000000000000001 @
b1000000000000000000000000000001 K
b1000000000000000000000000000001 h
b1000000000000000000000000000001 u
b10 1
b10 9
b10 A
b10 M
b10 j
b10 w
#430
0!
#435
1O
b10 Y
b1000000000000000000000000000001 U
b10 s
b1000000000000000000000000000001 o
b10 ""
b1000000000000000000000000000001 |
b0 1
b0 9
b0 A
b0 M
b0 j
b0 w
1!
#440
0!
#441
b1000000000000000000000000000011 ;
#445
0O
b1 4
b1 6
b1 E
b1 .
b1 D
b1 V
1-
b0 ""
b0 s
b0 Y
1!
#446
b1000000000000000000000000000011 5
b1000000000000000000000000000011 7
b1000000000000000000000000000011 @
b1000000000000000000000000000011 K
b1000000000000000000000000000011 h
b1000000000000000000000000000011 u
b10 1
b10 9
b10 A
b10 M
b10 j
b10 w
#450
0!
#455
1O
b10 Y
b1000000000000000000000000000011 U
b10 s
b1000000000000000000000000000011 o
b10 ""
b1000000000000000000000000000011 |
b0 1
b0 9
b0 A
b0 M
b0 j
b0 w
1!
#460
0!
#465
0O
b0 4
b0 6
b0 E
b0 .
b0 D
b0 V
1-
b0 ""
b0 s
b0 Y
1!
#470
0!
#475
1!
#480
0!
#485
1!
#490
0!
#495
1!
#500
0!
#505
1!
#510
0!
#515
1!
#520
0!
#525
1!
#530
0!
#535
1!
#540
0!
#545
1!
#550
0!
#555
1!
#560
0!
#565
1!
#570
0!
#575
1!
#580
0!
#585
1!
#590
0!
#595
1!
#600
0!
#605
1!
#610
0!
#615
1!
#620
0!
#625
1!
#630
0!
#635
1!
#640
0!
#645
1!
#650
0!
#655
1!
#660
0!
#661
b1010000000000000000000000110011 >
b1 =
#665
1!
#666
0,
1#
b100 I
1/
b1 5
b1 7
b1 @
b1 K
b1 h
b1 u
b10 1
b10 9
b10 A
b10 M
b10 j
b10 w
#670
0!
#675
x3
1z
b0 4
b0 6
b0 E
0W
1Z
b10 Y
b1 U
1t
b10 s
b1 o
1~
1#"
b10 ""
b1 |
b100 J
b0 1
b0 9
b0 A
b0 M
b0 j
b0 w
b1010000000000000000000000110011 0
b1010000000000000000000000110011 :
b1010000000000000000000000110011 N
b1010000000000000000000000110011 \
b1010000000000000000000000110011 `
b1010000000000000000000000110011 d
b1010000000000000000000000110011 k
b1010000000000000000000000110011 x
1!
#680
0!
#685
b100 >
b100000000000000000000000000010 =
13
1$
1!
#690
0!
#695
0z
1$
b0 Y
b0 s
b0 ""
1!
#696
1&
0#
b10 I
b100000000000000000000000000010 5
b100000000000000000000000000010 7
b100000000000000000000000000010 @
b100000000000000000000000000010 K
b100000000000000000000000000010 h
b100000000000000000000000000010 u
b10 1
b10 9
b10 A
b10 M
b10 j
b10 w
#700
0!
#705
x3
1m
b10 J
0~
b10 ""
b100000000000000000000000000010 |
1q
b10 s
b100000000000000000000000000010 o
b10 Y
b100000000000000000000000000010 U
b0 1
b0 9
b0 A
b0 M
b0 j
b0 w
b100 0
b100 :
b100 N
b100 \
b100 `
b100 d
b100 k
b100 x
1!
#710
0!
#715
b0 ?
b10101010101110111100110011011101 >
b100 =
13
1'
1!
#720
0!
#725
0m
1'
b0 ""
b0 s
b0 Y
1!
#726
0&
1#
b100 I
b0 2
b0 8
b0 L
b0 i
b0 v
b100 5
b100 7
b100 @
b100 K
b100 h
b100 u
b10 1
b10 9
b10 A
b10 M
b10 j
b10 w
#730
0!
#735
1z
b0 X
b10 Y
b100 U
0q
b0 r
b10 s
b100 o
1~
b0 !"
b10 ""
b100 |
b100 J
b0 1
b0 9
b0 A
b0 M
b0 j
b0 w
b10101010101110111100110011011101 0
b10101010101110111100110011011101 :
b10101010101110111100110011011101 N
b10101010101110111100110011011101 \
b10101010101110111100110011011101 `
b10101010101110111100110011011101 d
b10101010101110111100110011011101 k
b10101010101110111100110011011101 x
1!
#737
b1 ?
b110110111101101111011011 >
b1000 =
#740
0!
#745
0z
1$
b0 ""
b0 s
b0 Y
1!
#746
b1 2
b1 8
b1 L
b1 i
b1 v
b1000 5
b1000 7
b1000 @
b1000 K
b1000 h
b1000 u
b10 1
b10 9
b10 A
b10 M
b10 j
b10 w
#750
0!
#755
1z
b1 X
b10 Y
b1000 U
b1 r
b10 s
b1000 o
b1 !"
b10 ""
b1000 |
b0 1
b0 9
b0 A
b0 M
b0 j
b0 w
b110110111101101111011011 0
b110110111101101111011011 :
b110110111101101111011011 N
b110110111101101111011011 \
b110110111101101111011011 `
b110110111101101111011011 d
b110110111101101111011011 k
b110110111101101111011011 x
1!
#760
0!
#765
0z
1$
b0 ""
b0 s
b0 Y
1!
#770
0!
#775
1!
#780
0!
#785
1!
#790
0!
#795
1!
#800
0!
#805
1!
#810
0!
#815
1!
#820
0!
#825
1!
#830
0!
#835
1!
#840
0!
#845
1!
#850
0!
#855
1!
#857
b1 ;
#860
0!
#865
1!
#866
b10 2
b10 8
b10 L
b10 i
b10 v
0/
b1 5
b1 7
b1 @
b1 K
b1 h
b1 u
b10 1
b10 9
b10 A
b10 M
b10 j
b10 w
#870
0!
#875
1y
0Z
b10 X
b10 Y
b1 U
0t
b10 r
b10 s
b1 o
0#"
b10 !"
b10 ""
b1 |
b0 1
b0 9
b0 A
b0 M
b0 j
b0 w
1!
#880
0!
#881
b100000000000000000000000000010 ;
#885
b11011101000000000000000000110011 4
b11011101000000000000000000110011 6
b11011101000000000000000000110011 E
0y
b11011101000000000000000000110011 %
b11011101000000000000000000110011 B
b11011101000000000000000000110011 }
1$
b0 ""
b0 s
b0 Y
1!
#886
1&
0#
b10 I
b100000000000000000000000000010 5
b100000000000000000000000000010 7
b100000000000000000000000000010 @
b100000000000000000000000000010 K
b100000000000000000000000000010 h
b100000000000000000000000000010 u
b10 1
b10 9
b10 A
b10 M
b10 j
b10 w
#890
0!
#895
b0 4
b0 6
b0 E
1l
b10 Y
b100000000000000000000000000010 U
1q
b10 s
b100000000000000000000000000010 o
0~
b10 ""
b100000000000000000000000000010 |
b10 J
b0 1
b0 9
b0 A
b0 M
b0 j
b0 w
1!
#900
0!
#901
b100000000000000000000100000001 ;
#905
0l
b100 4
b100 6
b100 E
b0 ""
b100 (
b100 C
b100 p
1'
b0 s
b0 Y
1!
#906
b100000000000000000000100000001 5
b100000000000000000000100000001 7
b100000000000000000000100000001 @
b100000000000000000000100000001 K
b100000000000000000000100000001 h
b100000000000000000000100000001 u
b10 1
b10 9
b10 A
b10 M
b10 j
b10 w
#910
0!
#915
1l
b10 Y
b100000000000000000000100000001 U
b10 s
b100000000000000000000100000001 o
b10 ""
b100000000000000000000100000001 |
b0 1
b0 9
b0 A
b0 M
b0 j
b0 w
1!
#920
0!
#921
b100 ;
#925
0l
bx 4
bx 6
bx E
b0 ""
bx (
bx C
bx p
1'
b0 s
b0 Y
1!
#926
0&
1#
b100 I
b100 5
b100 7
b100 @
b100 K
b100 h
b100 u
b10 1
b10 9
b10 A
b10 M
b10 j
b10 w
#930
0!
#935
b11011101000000000000000000110011 4
b11011101000000000000000000110011 6
b11011101000000000000000000110011 E
1y
b10 Y
b100 U
0q
b10 s
b100 o
1~
b10 ""
b100 |
b100 J
b0 1
b0 9
b0 A
b0 M
b0 j
b0 w
1!
#940
0!
#941
b1 <
#945
bx11011101 4
bx11011101 6
bx11011101 E
0y
bx11011101 %
bx11011101 B
bx11011101 }
1$
b0 ""
b0 s
b0 Y
1!
#946
b1 2
b1 8
b1 L
b1 i
b1 v
b10 1
b10 9
b10 A
b10 M
b10 j
b10 w
#950
0!
#955
1y
b1 X
b10 Y
b1 r
b10 s
b1 !"
b10 ""
b0 1
b0 9
b0 A
b0 M
b0 j
b0 w
1!
#960
0!
#961
b110 ;
#965
b0xxxxxxxx11011101 4
b0xxxxxxxx11011101 6
b0xxxxxxxx11011101 E
0y
b0xxxxxxxx11011101 %
b0xxxxxxxx11011101 B
b0xxxxxxxx11011101 }
1$
b0 ""
b0 s
b0 Y
1!
#966
b110 5
b110 7
b110 @
b110 K
b110 h
b110 u
b10 1
b10 9
b10 A
b10 M
b10 j
b10 w
#970
0!
#975
1y
b10 Y
b110 U
b10 s
b110 o
b10 ""
b110 |
b0 1
b0 9
b0 A
b0 M
b0 j
b0 w
1!
#980
0!
#981
b0 <
b1000 ;
#985
b0xxxxxxxxxxxxxxxx 4
b0xxxxxxxxxxxxxxxx 6
b0xxxxxxxxxxxxxxxx E
0y
b0xxxxxxxxxxxxxxxx %
b0xxxxxxxxxxxxxxxx B
b0xxxxxxxxxxxxxxxx }
1$
b0 ""
b0 s
b0 Y
1!
#986
b0 2
b0 8
b0 L
b0 i
b0 v
b1000 5
b1000 7
b1000 @
b1000 K
b1000 h
b1000 u
b10 1
b10 9
b10 A
b10 M
b10 j
b10 w
#990
0!
#995
1y
b0 X
b10 Y
b1000 U
b0 r
b10 s
b1000 o
b0 !"
b10 ""
b1000 |
b0 1
b0 9
b0 A
b0 M
b0 j
b0 w
1!
#1000
0!
#1001
b1 <
#1005
b11011011 4
b11011011 6
b11011011 E
0y
b11011011 %
b11011011 B
b11011011 }
1$
b0 ""
b0 s
b0 Y
1!
#1006
b1 2
b1 8
b1 L
b1 i
b1 v
b10 1
b10 9
b10 A
b10 M
b10 j
b10 w
#1010
0!
#1015
1y
b1 X
b10 Y
b1 r
b10 s
b1 !"
b10 ""
b0 1
b0 9
b0 A
b0 M
b0 j
b0 w
1!
#1020
0!
#1021
b10 <
#1025
b1101101111011011 4
b1101101111011011 6
b1101101111011011 E
0y
b1101101111011011 %
b1101101111011011 B
b1101101111011011 }
1$
b0 ""
b0 s
b0 Y
1!
#1026
b10 2
b10 8
b10 L
b10 i
b10 v
b10 1
b10 9
b10 A
b10 M
b10 j
b10 w
#1030
0!
#1035
1y
b10 X
b10 Y
b10 r
b10 s
b10 !"
b10 ""
b0 1
b0 9
b0 A
b0 M
b0 j
b0 w
1!
#1040
0!
#1045
bx1101101111011011 4
bx1101101111011011 6
bx1101101111011011 E
0y
bx1101101111011011 %
bx1101101111011011 B
bx1101101111011011 }
1$
b0 ""
b0 s
b0 Y
1!
